contrib-projects/memcached_client/binary_req_orig.vcd
$date
   Apr 11, 2013 10:50:08
$end
$version
   ChipScope Pro Analyzer  13.2 O.61xd (Build 13200.11.171.1160)
$end
$timescale
    1ns
$end

$scope module cs $end
$var wire  1  n0 DataPort[0] $end
$var wire  1  n1 DataPort[1] $end
$var wire  1  n2 DataPort[2] $end
$var wire  1  n3 DataPort[3] $end
$var wire  1  n4 DataPort[4] $end
$var wire  1  n5 DataPort[5] $end
$var wire  1  n6 DataPort[6] $end
$var wire  1  n7 DataPort[7] $end
$var wire  1  n8 DataPort[8] $end
$var wire  1  n9 DataPort[9] $end
$var wire  1  n10 DataPort[10] $end
$var wire  1  n11 DataPort[11] $end
$var wire  1  n12 DataPort[12] $end
$var wire  1  n13 DataPort[13] $end
$var wire  1  n14 DataPort[14] $end
$var wire  1  n15 DataPort[15] $end
$var wire  1  n16 DataPort[16] $end
$var wire  1  n17 DataPort[17] $end
$var wire  1  n18 DataPort[18] $end
$var wire  1  n19 DataPort[19] $end
$var wire  1  n20 DataPort[20] $end
$var wire  1  n21 DataPort[21] $end
$var wire  1  n22 DataPort[22] $end
$var wire  1  n23 DataPort[23] $end
$var wire  1  n24 DataPort[24] $end
$var wire  1  n25 DataPort[25] $end
$var wire  1  n26 DataPort[26] $end
$var wire  1  n27 DataPort[27] $end
$var wire  1  n28 DataPort[28] $end
$var wire  1  n29 DataPort[29] $end
$var wire  1  n30 DataPort[30] $end
$var wire  1  n31 DataPort[31] $end
$var wire  1  n32 DataPort[32] $end
$var wire  1  n33 DataPort[33] $end
$var wire  1  n34 DataPort[34] $end
$var wire  1  n35 DataPort[35] $end
$var wire  1  n36 DataPort[36] $end
$var wire  1  n37 DataPort[37] $end
$var wire  1  n38 DataPort[38] $end
$var wire  1  n39 DataPort[39] $end
$var wire  1  n40 DataPort[40] $end
$var wire  1  n41 DataPort[41] $end
$var wire  1  n42 DataPort[42] $end
$var wire  1  n43 DataPort[43] $end
$var wire  1  n44 DataPort[44] $end
$var wire  1  n45 DataPort[45] $end
$var wire  1  n46 DataPort[46] $end
$var wire  1  n47 DataPort[47] $end
$var wire  1  n48 DataPort[48] $end
$var wire  1  n49 DataPort[49] $end
$var wire  1  n50 DataPort[50] $end
$var wire  1  n51 DataPort[51] $end
$var wire  1  n52 DataPort[52] $end
$var wire  1  n53 DataPort[53] $end
$var wire  1  n54 DataPort[54] $end
$var wire  1  n55 DataPort[55] $end
$var wire  1  n56 DataPort[56] $end
$var wire  1  n57 DataPort[57] $end
$var wire  1  n58 DataPort[58] $end
$var wire  1  n59 DataPort[59] $end
$var wire  1  n60 DataPort[60] $end
$var wire  1  n61 DataPort[61] $end
$var wire  1  n62 DataPort[62] $end
$var wire  1  n63 DataPort[63] $end
$var wire  1  n64 M_AXIS_TVALID $end
$var wire  1  n65 M_AXIS_TREADY $end
$var wire  1  n66 M_AXIS_TLAST $end
$var wire  1  n67 DataPort[67] $end
$var wire  1  n68 DataPort[68] $end
$var wire  1  n69 DataPort[69] $end
$var wire  1  n70 DataPort[70] $end
$var wire  1  n71 DataPort[71] $end
$var wire  1  n72 DataPort[72] $end
$var wire  1  n73 DataPort[73] $end
$var wire  1  n74 DataPort[74] $end
$var wire  1  n75 DataPort[75] $end
$var wire  1  n76 DataPort[76] $end
$var wire  1  n77 DataPort[77] $end
$var wire  1  n78 DataPort[78] $end
$var wire  1  n79 DataPort[79] $end
$var wire  1  n80 DataPort[80] $end
$var wire  1  n81 DataPort[81] $end
$var wire  1  n82 DataPort[82] $end
$var wire  1  n83 DataPort[83] $end
$var wire  1  n84 DataPort[84] $end
$var wire  1  n85 DataPort[85] $end
$var wire  1  n86 DataPort[86] $end
$var wire  1  n87 DataPort[87] $end
$var wire  1  n88 DataPort[88] $end
$var wire  1  n89 DataPort[89] $end
$var wire  1  n90 DataPort[90] $end
$var wire  1  n91 DataPort[91] $end
$var wire  1  n92 DataPort[92] $end
$var wire  1  n93 DataPort[93] $end
$var wire  1  n94 DataPort[94] $end
$var wire  1  n95 DataPort[95] $end
$var wire  1  n96 DataPort[96] $end
$var wire  1  n97 DataPort[97] $end
$var wire  1  n98 DataPort[98] $end
$var wire  1  n99 DataPort[99] $end
$var wire  1  n100 DataPort[100] $end
$var wire  1  n101 DataPort[101] $end
$var wire  1  n102 DataPort[102] $end
$var wire  1  n103 DataPort[103] $end
$var wire  1  n104 DataPort[104] $end
$var wire  1  n105 DataPort[105] $end
$var wire  1  n106 DataPort[106] $end
$var wire  1  n107 DataPort[107] $end
$var wire  1  n108 DataPort[108] $end
$var wire  1  n109 DataPort[109] $end
$var wire  1  n110 DataPort[110] $end
$var wire  1  n111 DataPort[111] $end
$var wire  1  n112 DataPort[112] $end
$var wire  1  n113 DataPort[113] $end
$var wire  1  n114 DataPort[114] $end
$var wire  1  n115 DataPort[115] $end
$var wire  1  n116 DataPort[116] $end
$var wire  1  n117 DataPort[117] $end
$var wire  1  n118 DataPort[118] $end
$var wire  1  n119 DataPort[119] $end
$var wire  1  n120 DataPort[120] $end
$var wire  1  n121 DataPort[121] $end
$var wire  1  n122 DataPort[122] $end
$var wire  1  n123 DataPort[123] $end
$var wire  1  n124 DataPort[124] $end
$var wire  1  n125 DataPort[125] $end
$var wire  1  n126 DataPort[126] $end
$var wire  1  n127 DataPort[127] $end
$var wire  1  n128 DataPort[128] $end
$var wire  1  n129 DataPort[129] $end
$var wire  1  n130 DataPort[130] $end
$var wire  1  n131 DataPort[131] $end
$var wire  1  n132 DataPort[132] $end
$var wire  1  n133 DataPort[133] $end
$var wire  1  n134 DataPort[134] $end
$var wire  1  n135 DataPort[135] $end
$var wire  1  n136 DataPort[136] $end
$var wire  1  n137 DataPort[137] $end
$var wire  1  n138 DataPort[138] $end
$var wire  1  n139 DataPort[139] $end
$var wire  1  n140 DataPort[140] $end
$var wire  1  n141 DataPort[141] $end
$var wire  1  n142 DataPort[142] $end
$var wire  1  n143 DataPort[143] $end
$var wire  1  n144 DataPort[144] $end
$var wire  1  n145 DataPort[145] $end
$var wire  1  n146 DataPort[146] $end
$var wire  1  n147 DataPort[147] $end
$var wire  1  n148 DataPort[148] $end
$var wire  1  n149 DataPort[149] $end
$var wire  1  n150 DataPort[150] $end
$var wire  1  n151 DataPort[151] $end
$var wire  1  n152 DataPort[152] $end
$var wire  1  n153 DataPort[153] $end
$var wire  1  n154 DataPort[154] $end
$var wire  1  n155 DataPort[155] $end
$var wire  1  n156 DataPort[156] $end
$var wire  1  n157 DataPort[157] $end
$var wire  1  n158 DataPort[158] $end
$var wire  1  n159 DataPort[159] $end
$var wire  1  n160 DataPort[160] $end
$var wire  1  n161 DataPort[161] $end
$var wire  1  n162 DataPort[162] $end
$var wire  1  n163 DataPort[163] $end
$var wire  1  n164 DataPort[164] $end
$var wire  1  n165 DataPort[165] $end
$var wire  1  n166 DataPort[166] $end
$var wire  1  n167 DataPort[167] $end
$var wire  1  n168 DataPort[168] $end
$var wire  1  n169 DataPort[169] $end
$var wire  1  n170 DataPort[170] $end
$var wire  1  n171 DataPort[171] $end
$var wire  1  n172 DataPort[172] $end
$var wire  1  n173 DataPort[173] $end
$var wire  1  n174 DataPort[174] $end
$var wire  1  n175 DataPort[175] $end
$var wire  1  n176 DataPort[176] $end
$var wire  1  n177 DataPort[177] $end
$var wire  1  n178 DataPort[178] $end
$var wire  1  n179 DataPort[179] $end
$var wire  1  n180 DataPort[180] $end
$var wire  1  n181 DataPort[181] $end
$var wire  1  n182 DataPort[182] $end
$var wire  1  n183 DataPort[183] $end
$var wire  1  n184 DataPort[184] $end
$var wire  1  n185 DataPort[185] $end
$var wire  1  n186 DataPort[186] $end
$var wire  1  n187 DataPort[187] $end
$var wire  1  n188 DataPort[188] $end
$var wire  1  n189 DataPort[189] $end
$var wire  1  n190 DataPort[190] $end
$var wire  1  n191 DataPort[191] $end
$var wire  1  n192 S_AXIS_TVALID $end
$var wire  1  n193 S_AXIS_TREADY $end
$var wire  1  n194 S_AXIS_TLAST $end
$var wire  1  n195 DataPort[195] $end
$var wire  1  n196 DataPort[196] $end
$var wire  1  n197 DataPort[197] $end
$var wire  1  n198 DataPort[198] $end
$var wire  1  n199 DataPort[199] $end
$var wire  1  n200 DataPort[200] $end
$var wire  1  n201 DataPort[201] $end
$var wire  1  n202 DataPort[202] $end
$var wire  1  n203 DataPort[203] $end
$var wire  1  n204 DataPort[204] $end
$var wire  1  n205 DataPort[205] $end
$var wire  1  n206 DataPort[206] $end
$var wire  1  n207 DataPort[207] $end
$var wire  1  n208 DataPort[208] $end
$var wire  1  n209 DataPort[209] $end
$var wire  1  n210 DataPort[210] $end
$var wire  1  n211 DataPort[211] $end
$var wire  1  n212 DataPort[212] $end
$var wire  1  n213 DataPort[213] $end
$var wire  1  n214 DataPort[214] $end
$var wire  1  n215 DataPort[215] $end
$var wire  1  n216 DataPort[216] $end
$var wire  1  n217 DataPort[217] $end
$var wire  1  n218 DataPort[218] $end
$var wire  1  n219 DataPort[219] $end
$var wire  1  n220 DataPort[220] $end
$var wire  1  n221 DataPort[221] $end
$var wire  1  n222 DataPort[222] $end
$var wire  1  n223 DataPort[223] $end
$var wire  1  n224 DataPort[224] $end
$var wire  1  n225 DataPort[225] $end
$var wire  1  n226 DataPort[226] $end
$var wire  1  n227 DataPort[227] $end
$var wire  1  n228 DataPort[228] $end
$var wire  1  n229 DataPort[229] $end
$var wire  1  n230 DataPort[230] $end
$var wire  1  n231 DataPort[231] $end
$var wire  1  n232 DataPort[232] $end
$var wire  1  n233 DataPort[233] $end
$var wire  1  n234 DataPort[234] $end
$var wire  1  n235 DataPort[235] $end
$var wire  1  n236 DataPort[236] $end
$var wire  1  n237 DataPort[237] $end
$var wire  1  n238 DataPort[238] $end
$var wire  1  n239 DataPort[239] $end
$var wire  1  n240 DataPort[240] $end
$var wire  1  n241 DataPort[241] $end
$var wire  1  n242 DataPort[242] $end
$var wire  1  n243 DataPort[243] $end
$var wire  1  n244 DataPort[244] $end
$var wire  1  n245 DataPort[245] $end
$var wire  1  n246 DataPort[246] $end
$var wire  1  n247 DataPort[247] $end
$var wire  1  n248 DataPort[248] $end
$var wire  1  n249 DataPort[249] $end
$var wire  1  n250 DataPort[250] $end
$var wire  1  n251 DataPort[251] $end
$var wire  1  n252 DataPort[252] $end
$var wire  1  n253 DataPort[253] $end
$var wire  1  n254 DataPort[254] $end
$var wire  1  n255 DataPort[255] $end
$var wire 64 n256 M_AXIS_TDATA $end
$var wire 61 n257 nothing $end
$var wire 64 n258 S_AXIS_TDATA $end
$var wire 8 n259 S_AXIS_TSTRB $end
$upscope $end
$enddefinitions $end

#0
0n0
0n1
0n2
0n3
0n4
0n5
0n6
0n7
0n8
0n9
0n10
0n11
0n12
0n13
0n14
0n15
0n16
0n17
0n18
0n19
0n20
0n21
0n22
0n23
0n24
0n25
0n26
0n27
0n28
0n29
0n30
0n31
0n32
0n33
0n34
0n35
0n36
0n37
0n38
0n39
0n40
0n41
0n42
0n43
0n44
0n45
0n46
0n47
0n48
0n49
0n50
0n51
0n52
0n53
0n54
0n55
0n56
0n57
0n58
0n59
0n60
0n61
0n62
0n63
0n64
1n65
0n66
0n67
0n68
0n69
0n70
0n71
0n72
0n73
0n74
0n75
0n76
0n77
0n78
0n79
0n80
0n81
0n82
0n83
0n84
0n85
0n86
0n87
0n88
0n89
0n90
0n91
0n92
0n93
0n94
0n95
0n96
0n97
0n98
0n99
0n100
0n101
0n102
0n103
0n104
0n105
0n106
0n107
0n108
0n109
0n110
0n111
0n112
0n113
0n114
0n115
0n116
0n117
0n118
0n119
0n120
0n121
0n122
0n123
0n124
0n125
0n126
0n127
0n128
0n129
0n130
0n131
0n132
0n133
0n134
0n135
0n136
0n137
0n138
0n139
0n140
0n141
0n142
0n143
0n144
0n145
0n146
0n147
0n148
0n149
0n150
0n151
0n152
0n153
0n154
0n155
0n156
0n157
0n158
0n159
0n160
0n161
0n162
0n163
0n164
0n165
0n166
0n167
0n168
0n169
0n170
0n171
0n172
0n173
0n174
0n175
0n176
0n177
0n178
0n179
0n180
0n181
0n182
0n183
0n184
0n185
0n186
0n187
0n188
0n189
0n190
0n191
0n192
1n193
0n194
0n195
0n196
0n197
0n198
0n199
0n200
0n201
0n202
0n203
0n204
0n205
0n206
0n207
0n208
0n209
0n210
0n211
0n212
0n213
0n214
0n215
0n216
0n217
0n218
0n219
0n220
0n221
0n222
0n223
0n224
0n225
0n226
0n227
0n228
0n229
0n230
0n231
0n232
0n233
0n234
0n235
0n236
0n237
0n238
0n239
0n240
0n241
0n242
0n243
0n244
0n245
0n246
0n247
0n248
0n249
0n250
0n251
0n252
0n253
0n254
0n255
b0 n256
b0 n257
b0 n258
b0 n259
#489
1n66
#490
0n66
#500
1n3
1n5
1n6
1n9
1n11
1n12
1n15
1n18
1n19
1n25
1n27
1n28
1n29
1n31
1n33
1n37
1n38
1n39
1n44
1n47
1n52
1n54
1n55
1n56
1n57
1n58
1n61
1n64
b10011111010000100100001110001010111010000011001001101001101000 n256
#501
0n3
0n5
0n6
1n8
0n9
1n10
0n11
0n12
1n14
0n15
0n18
0n19
0n25
0n28
0n29
0n31
1n32
0n33
1n34
0n37
0n39
1n40
1n42
1n43
1n46
0n52
1n53
0n55
0n56
0n57
0n58
0n61
b1100000110111010100010100001000000000000100010100000000 n256
#502
1n0
1n4
0n8
0n10
0n27
1n30
0n32
0n34
0n38
0n40
0n42
0n43
0n44
0n46
0n47
1n50
1n51
1n52
0n54
b111100000000000000000001000000000000000100000000010001 n256
#503
0n0
0n4
1n5
1n7
1n15
1n16
1n24
0n30
1n37
1n39
1n46
1n47
1n48
0n52
1n54
1n56
1n57
1n58
1n60
1n61
1n63
b1011011101101101110000001010000000000001000000011100000010100000 n256
#504
1n3
0n7
0n14
0n15
1n17
1n19
1n22
1n23
1n25
1n27
1n29
0n37
0n39
0n48
1n49
0n50
0n51
0n53
0n54
0n57
0n58
0n60
0n61
0n63
b100000010110000000000000000101011110010110000000000101000 n256
#505
0n3
0n5
0n16
0n17
0n22
0n23
0n24
0n25
0n27
0n29
0n46
1n48
0n49
1n50
1n51
1n53
1n54
1n57
1n58
1n60
1n61
1n63
b1011011101101101100000000000000000000000000010000000000000000000 n256
#506
1n18
0n19
1n20
0n47
0n48
0n50
0n51
0n53
0n54
0n56
0n57
0n58
0n60
0n61
0n63
b101000000000000000000 n256
#507
0n18
0n20
b0 n256
#508
1n16
1n19
1n20
1n21
1n22
1n24
1n26
1n29
1n30
1n32
1n33
1n35
1n37
1n38
1n40
1n43
1n44
1n45
1n46
b11110010110101101100101011110010000000000000000 n256
#509
1n4
1n5
1n6
1n7
1n8
1n9
1n11
1n15
0n20
0n21
1n23
1n27
0n30
1n31
0n32
0n33
0n35
0n37
0n38
0n40
0n43
0n44
0n45
0n46
1n48
1n50
1n53
1n54
1n56
1n57
1n59
1n61
1n62
b110101101100101000000000000000010101101110010011000101111110000 n256
#510
0n4
0n5
0n6
0n7
0n8
0n9
0n11
0n15
0n16
0n19
0n22
0n23
0n24
0n26
0n27
0n29
0n31
0n48
0n50
0n53
0n54
0n56
0n57
0n59
0n61
0n62
1n66
b0 n256
#511
0n64
0n66
#521
1n3
1n5
1n6
1n9
1n11
1n12
1n15
1n18
1n19
1n25
1n27
1n28
1n29
1n31
1n33
1n37
1n38
1n39
1n44
1n47
1n52
1n54
1n55
1n56
1n57
1n58
1n61
1n64
b10011111010000100100001110001010111010000011001001101001101000 n256
#522
0n3
0n5
0n6
1n8
0n9
1n10
0n11
0n12
1n14
0n15
0n18
0n19
0n25
0n28
0n29
0n31
1n32
0n33
1n34
0n37
0n39
1n40
1n42
1n43
1n46
0n52
1n53
0n55
0n56
0n57
0n58
0n61
b1100000110111010100010100001000000000000100010100000000 n256
#523
1n0
1n4
0n8
0n10
0n27
1n30
0n32
0n34
0n38
0n40
0n42
0n43
0n44
0n46
0n47
1n50
1n51
1n52
0n54
b111100000000000000000001000000000000000100000000010001 n256
#524
0n0
0n4
1n5
1n7
1n15
1n16
1n24
0n30
1n37
1n39
1n46
1n47
1n48
0n52
1n54
1n56
1n57
1n58
1n60
1n61
1n63
b1011011101101101110000001010000000000001000000011100000010100000 n256
#525
1n3
0n7
0n14
0n15
1n17
1n19
1n22
1n23
1n25
1n27
1n29
0n37
0n39
0n48
1n49
0n50
0n51
0n53
0n54
0n57
0n58
0n60
0n61
0n63
b100000010110000000000000000101011110010110000000000101000 n256
#526
0n3
0n5
0n16
0n17
0n22
0n23
0n24
0n25
0n27
0n29
0n46
1n48
0n49
1n50
1n51
1n53
1n54
1n57
1n58
1n60
1n61
1n63
b1011011101101101100000000000000000000000000010000000000000000000 n256
#527
1n18
0n19
1n20
0n47
0n48
0n50
0n51
0n53
0n54
0n56
0n57
0n58
0n60
0n61
0n63
b101000000000000000000 n256
#528
0n18
0n20
b0 n256
#529
1n16
1n19
1n20
1n21
1n22
1n24
1n26
1n29
1n30
1n32
1n33
1n35
1n37
1n38
1n40
1n43
1n44
1n45
1n46
b11110010110101101100101011110010000000000000000 n256
#530
1n4
1n5
1n6
1n7
1n8
1n9
1n11
1n15
0n20
0n21
1n23
1n27
0n30
1n31
0n32
0n33
0n35
0n37
0n38
0n40
0n43
0n44
0n45
0n46
1n48
1n50
1n53
1n54
1n56
1n57
1n59
1n61
1n62
b110101101100101000000000000000010101101110010011000101111110000 n256
#531
0n4
0n5
0n6
0n7
0n8
0n9
0n11
0n15
0n16
0n19
0n22
0n23
0n24
0n26
0n27
0n29
0n31
0n48
0n50
0n53
0n54
0n56
0n57
0n59
0n61
0n62
1n66
b0 n256
#532
0n64
0n66
#542
1n3
1n5
1n6
1n9
1n11
1n12
1n15
1n18
1n19
1n25
1n27
1n28
1n29
1n31
1n33
1n37
1n38
1n39
1n44
1n47
1n52
1n54
1n55
1n56
1n57
1n58
1n61
1n64
b10011111010000100100001110001010111010000011001001101001101000 n256
#543
0n3
0n5
0n6
1n8
0n9
1n10
0n11
0n12
1n14
0n15
0n18
0n19
0n25
0n28
0n29
0n31
1n32
0n33
1n34
0n37
0n39
1n40
1n42
1n43
1n46
0n52
1n53
0n55
0n56
0n57
0n58
0n61
b1100000110111010100010100001000000000000100010100000000 n256
#544
1n0
1n4
0n8
0n10
0n27
1n30
0n32
0n34
0n38
0n40
0n42
0n43
0n44
0n46
0n47
1n50
1n51
1n52
0n54
b111100000000000000000001000000000000000100000000010001 n256
#545
0n0
0n4
1n5
1n7
1n15
1n16
1n24
0n30
1n37
1n39
1n46
1n47
1n48
0n52
1n54
1n56
1n57
1n58
1n60
1n61
1n63
b1011011101101101110000001010000000000001000000011100000010100000 n256
#546
1n3
0n7
0n14
0n15
1n17
1n19
1n22
1n23
1n25
1n27
1n29
0n37
0n39
0n48
1n49
0n50
0n51
0n53
0n54
0n57
0n58
0n60
0n61
0n63
b100000010110000000000000000101011110010110000000000101000 n256
#547
0n3
0n5
0n16
0n17
0n22
0n23
0n24
0n25
0n27
0n29
0n46
1n48
0n49
1n50
1n51
1n53
1n54
1n57
1n58
1n60
1n61
1n63
b1011011101101101100000000000000000000000000010000000000000000000 n256
#548
1n18
0n19
1n20
0n47
0n48
0n50
0n51
0n53
0n54
0n56
0n57
0n58
0n60
0n61
0n63
b101000000000000000000 n256
#549
0n18
0n20
b0 n256
#550
1n16
1n19
1n20
1n21
1n22
1n24
1n26
1n29
1n30
1n32
1n33
1n35
1n37
1n38
1n40
1n43
1n44
1n45
1n46
b11110010110101101100101011110010000000000000000 n256
#551
1n4
1n5
1n6
1n7
1n8
1n9
1n11
1n15
0n20
0n21
1n23
1n27
0n30
1n31
0n32
0n33
0n35
0n37
0n38
0n40
0n43
0n44
0n45
0n46
1n48
1n50
1n53
1n54
1n56
1n57
1n59
1n61
1n62
b110101101100101000000000000000010101101110010011000101111110000 n256
#552
0n4
0n5
0n6
0n7
0n8
0n9
0n11
0n15
0n16
0n19
0n22
0n23
0n24
0n26
0n27
0n29
0n31
0n48
0n50
0n53
0n54
0n56
0n57
0n59
0n61
0n62
1n66
b0 n256
#553
0n64
0n66
#563
1n3
1n5
1n6
1n9
1n11
1n12
1n15
1n18
1n19
1n25
1n27
1n28
1n29
1n31
1n33
1n37
1n38
1n39
1n44
1n47
1n52
1n54
1n55
1n56
1n57
1n58
1n61
1n64
b10011111010000100100001110001010111010000011001001101001101000 n256
#564
0n3
0n5
0n6
1n8
0n9
1n10
0n11
0n12
1n14
0n15
0n18
0n19
0n25
0n28
0n29
0n31
1n32
0n33
1n34
0n37
0n39
1n40
1n42
1n43
1n46
0n52
1n53
0n55
0n56
0n57
0n58
0n61
b1100000110111010100010100001000000000000100010100000000 n256
#565
1n0
1n4
0n8
0n10
0n27
1n30
0n32
0n34
0n38
0n40
0n42
0n43
0n44
0n46
0n47
1n50
1n51
1n52
0n54
b111100000000000000000001000000000000000100000000010001 n256
#566
0n0
0n4
1n5
1n7
1n15
1n16
1n24
0n30
1n37
1n39
1n46
1n47
1n48
0n52
1n54
1n56
1n57
1n58
1n60
1n61
1n63
b1011011101101101110000001010000000000001000000011100000010100000 n256
#567
1n3
0n7
0n14
0n15
1n17
1n19
1n22
1n23
1n25
1n27
1n29
0n37
0n39
0n48
1n49
0n50
0n51
0n53
0n54
0n57
0n58
0n60
0n61
0n63
b100000010110000000000000000101011110010110000000000101000 n256
#568
0n3
0n5
0n16
0n17
0n22
0n23
0n24
0n25
0n27
0n29
0n46
1n48
0n49
1n50
1n51
1n53
1n54
1n57
1n58
1n60
1n61
1n63
b1011011101101101100000000000000000000000000010000000000000000000 n256
#569
1n18
0n19
1n20
0n47
0n48
0n50
0n51
0n53
0n54
0n56
0n57
0n58
0n60
0n61
0n63
b101000000000000000000 n256
#570
0n18
0n20
b0 n256
#571
1n16
1n19
1n20
1n21
1n22
1n24
1n26
1n29
1n30
1n32
1n33
1n35
1n37
1n38
1n40
1n43
1n44
1n45
1n46
b11110010110101101100101011110010000000000000000 n256
#572
1n4
1n5
1n6
1n7
1n8
1n9
1n11
1n15
0n20
0n21
1n23
1n27
0n30
1n31
0n32
0n33
0n35
0n37
0n38
0n40
0n43
0n44
0n45
0n46
1n48
1n50
1n53
1n54
1n56
1n57
1n59
1n61
1n62
b110101101100101000000000000000010101101110010011000101111110000 n256
#573
0n4
0n5
0n6
0n7
0n8
0n9
0n11
0n15
0n16
0n19
0n22
0n23
0n24
0n26
0n27
0n29
0n31
0n48
0n50
0n53
0n54
0n56
0n57
0n59
0n61
0n62
1n66
b0 n256
#574
0n64
0n66
#584
1n3
1n5
1n6
1n9
1n11
1n12
1n15
1n18
1n19
1n25
1n27
1n28
1n29
1n31
1n33
1n37
1n38
1n39
1n44
1n47
1n52
1n54
1n55
1n56
1n57
1n58
1n61
1n64
b10011111010000100100001110001010111010000011001001101001101000 n256
#585
0n3
0n5
0n6
1n8
0n9
1n10
0n11
0n12
1n14
0n15
0n18
0n19
0n25
0n28
0n29
0n31
1n32
0n33
1n34
0n37
0n39
1n40
1n42
1n43
1n46
0n52
1n53
0n55
0n56
0n57
0n58
0n61
b1100000110111010100010100001000000000000100010100000000 n256
#586
1n0
1n4
0n8
0n10
0n27
1n30
0n32
0n34
0n38
0n40
0n42
0n43
0n44
0n46
0n47
1n50
1n51
1n52
0n54
b111100000000000000000001000000000000000100000000010001 n256
#587
0n0
0n4
1n5
1n7
1n15
1n16
1n24
0n30
1n37
1n39
1n46
1n47
1n48
0n52
1n54
1n56
1n57
1n58
1n60
1n61
1n63
b1011011101101101110000001010000000000001000000011100000010100000 n256
#588
1n3
0n7
0n14
0n15
1n17
1n19
1n22
1n23
1n25
1n27
1n29
0n37
0n39
0n48
1n49
0n50
0n51
0n53
0n54
0n57
0n58
0n60
0n61
0n63
b100000010110000000000000000101011110010110000000000101000 n256
#589
0n3
0n5
0n16
0n17
0n22
0n23
0n24
0n25
0n27
0n29
0n46
1n48
0n49
1n50
1n51
1n53
1n54
1n57
1n58
1n60
1n61
1n63
b1011011101101101100000000000000000000000000010000000000000000000 n256
#590
1n18
0n19
1n20
0n47
0n48
0n50
0n51
0n53
0n54
0n56
0n57
0n58
0n60
0n61
0n63
b101000000000000000000 n256
#591
0n18
0n20
b0 n256
#592
1n16
1n19
1n20
1n21
1n22
1n24
1n26
1n29
1n30
1n32
1n33
1n35
1n37
1n38
1n40
1n43
1n44
1n45
1n46
b11110010110101101100101011110010000000000000000 n256
#593
1n4
1n5
1n6
1n7
1n8
1n9
1n11
1n15
0n20
0n21
1n23
1n27
0n30
1n31
0n32
0n33
0n35
0n37
0n38
0n40
0n43
0n44
0n45
0n46
1n48
1n50
1n53
1n54
1n56
1n57
1n59
1n61
1n62
b110101101100101000000000000000010101101110010011000101111110000 n256
#594
0n4
0n5
0n6
0n7
0n8
0n9
0n11
0n15
0n16
0n19
0n22
0n23
0n24
0n26
0n27
0n29
0n31
0n48
0n50
0n53
0n54
0n56
0n57
0n59
0n61
0n62
1n66
b0 n256
#595
0n64
0n66
#605
1n3
1n5
1n6
1n9
1n11
1n12
1n15
1n18
1n19
1n25
1n27
1n28
1n29
1n31
1n33
1n37
1n38
1n39
1n44
1n47
1n52
1n54
1n55
1n56
1n57
1n58
1n61
1n64
b10011111010000100100001110001010111010000011001001101001101000 n256
#606
0n3
0n5
0n6
1n8
0n9
1n10
0n11
0n12
1n14
0n15
0n18
0n19
0n25
0n28
0n29
0n31
1n32
0n33
1n34
0n37
0n39
1n40
1n42
1n43
1n46
0n52
1n53
0n55
0n56
0n57
0n58
0n61
b1100000110111010100010100001000000000000100010100000000 n256
#607
1n0
1n4
0n8
0n10
0n27
1n30
0n32
0n34
0n38
0n40
0n42
0n43
0n44
0n46
0n47
1n50
1n51
1n52
0n54
b111100000000000000000001000000000000000100000000010001 n256
#608
0n0
0n4
1n5
1n7
1n15
1n16
1n24
0n30
1n37
1n39
1n46
1n47
1n48
0n52
1n54
1n56
1n57
1n58
1n60
1n61
1n63
b1011011101101101110000001010000000000001000000011100000010100000 n256
#609
1n3
0n7
0n14
0n15
1n17
1n19
1n22
1n23
1n25
1n27
1n29
0n37
0n39
0n48
1n49
0n50
0n51
0n53
0n54
0n57
0n58
0n60
0n61
0n63
b100000010110000000000000000101011110010110000000000101000 n256
#610
0n3
0n5
0n16
0n17
0n22
0n23
0n24
0n25
0n27
0n29
0n46
1n48
0n49
1n50
1n51
1n53
1n54
1n57
1n58
1n60
1n61
1n63
b1011011101101101100000000000000000000000000010000000000000000000 n256
#611
1n18
0n19
1n20
0n47
0n48
0n50
0n51
0n53
0n54
0n56
0n57
0n58
0n60
0n61
0n63
b101000000000000000000 n256
#612
0n18
0n20
b0 n256
#613
1n16
1n19
1n20
1n21
1n22
1n24
1n26
1n29
1n30
1n32
1n33
1n35
1n37
1n38
1n40
1n43
1n44
1n45
1n46
b11110010110101101100101011110010000000000000000 n256
#614
1n4
1n5
1n6
1n7
1n8
1n9
1n11
1n15
0n20
0n21
1n23
1n27
0n30
1n31
0n32
0n33
0n35
0n37
0n38
0n40
0n43
0n44
0n45
0n46
1n48
1n50
1n53
1n54
1n56
1n57
1n59
1n61
1n62
b110101101100101000000000000000010101101110010011000101111110000 n256
#615
0n4
0n5
0n6
0n7
0n8
0n9
0n11
0n15
0n16
0n19
0n22
0n23
0n24
0n26
0n27
0n29
0n31
0n48
0n50
0n53
0n54
0n56
0n57
0n59
0n61
0n62
1n66
b0 n256
#616
0n64
0n66
#626
1n3
1n5
1n6
1n9
1n11
1n12
1n15
1n18
1n19
1n25
1n27
1n28
1n29
1n31
1n33
1n37
1n38
1n39
1n44
1n47
1n52
1n54
1n55
1n56
1n57
1n58
1n61
1n64
b10011111010000100100001110001010111010000011001001101001101000 n256
#627
0n3
0n5
0n6
1n8
0n9
1n10
0n11
0n12
1n14
0n15
0n18
0n19
0n25
0n28
0n29
0n31
1n32
0n33
1n34
0n37
0n39
1n40
1n42
1n43
1n46
0n52
1n53
0n55
0n56
0n57
0n58
0n61
b1100000110111010100010100001000000000000100010100000000 n256
#628
1n0
1n4
0n8
0n10
0n27
1n30
0n32
0n34
0n38
0n40
0n42
0n43
0n44
0n46
0n47
1n50
1n51
1n52
0n54
b111100000000000000000001000000000000000100000000010001 n256
#629
0n0
0n4
1n5
1n7
1n15
1n16
1n24
0n30
1n37
1n39
1n46
1n47
1n48
0n52
1n54
1n56
1n57
1n58
1n60
1n61
1n63
b1011011101101101110000001010000000000001000000011100000010100000 n256
#630
1n3
0n7
0n14
0n15
1n17
1n19
1n22
1n23
1n25
1n27
1n29
0n37
0n39
0n48
1n49
0n50
0n51
0n53
0n54
0n57
0n58
0n60
0n61
0n63
b100000010110000000000000000101011110010110000000000101000 n256
#631
0n3
0n5
0n16
0n17
0n22
0n23
0n24
0n25
0n27
0n29
0n46
1n48
0n49
1n50
1n51
1n53
1n54
1n57
1n58
1n60
1n61
1n63
b1011011101101101100000000000000000000000000010000000000000000000 n256
#632
1n18
0n19
1n20
0n47
0n48
0n50
0n51
0n53
0n54
0n56
0n57
0n58
0n60
0n61
0n63
b101000000000000000000 n256
#633
0n18
0n20
b0 n256
#634
1n16
1n19
1n20
1n21
1n22
1n24
1n26
1n29
1n30
1n32
1n33
1n35
1n37
1n38
1n40
1n43
1n44
1n45
1n46
b11110010110101101100101011110010000000000000000 n256
#635
1n4
1n5
1n6
1n7
1n8
1n9
1n11
1n15
0n20
0n21
1n23
1n27
0n30
1n31
0n32
0n33
0n35
0n37
0n38
0n40
0n43
0n44
0n45
0n46
1n48
1n50
1n53
1n54
1n56
1n57
1n59
1n61
1n62
b110101101100101000000000000000010101101110010011000101111110000 n256
